…
### `courses.csv`

Let’s start with `courses.csv`, which contains *one row per course
code*:

``` r
courses
```

    ## # A tibble: 3,325 x 3
    ##       id code     name                          
    ##    <dbl> <chr>    <chr>                         
    ##  1     1 ACCT 270 FoundationsAccountng&Valuation
    ##  2     2 AFAM 146 Urban and Education Inequality
    ##  3     2 ECON 171 Urban and Education Inequality
    ##  4     2 EDST 271 Urban and Education Inequality
    ##  5     3 AFAM 162 AfricanAmerHist:Emanciptn-Pres
    ##  6     3 AMST 162 AfricanAmerHist:Emanciptn-Pres
    ##  7     3 HIST 187 AfricanAmerHist:Emanciptn-Pres
    ##  8     4 AFAM 164 "Politics of \"The Wire\""    
    ##  9     4 PLSC 263 "Politics of \"The Wire\""    
    ## 10     4 URBN 304 "Politics of \"The Wire\""    
    ## # ... with 3,315 more rows
…
Note that last point: in the left table, we used to have one row per
`id`, but in the right table, we had twenty rows per `id`, so the
`left_join()` operation duplicated the rows on the left until we have
one row per `date` of shopping period.

``` r
left_join(courses, demand)
```

    ## # A tibble: 66,500 x 5
    ##       id code     name                           date  count
    ##    <dbl> <chr>    <chr>                          <chr> <dbl>
    ##  1     1 ACCT 270 FoundationsAccountng&Valuation 1/05     22
    ##  2     1 ACCT 270 FoundationsAccountng&Valuation 1/06     22
    ##  3     1 ACCT 270 FoundationsAccountng&Valuation 1/07     24
    ##  4     1 ACCT 270 FoundationsAccountng&Valuation 1/08     42
    ##  5     1 ACCT 270 FoundationsAccountng&Valuation 1/09     45
    ##  6     1 ACCT 270 FoundationsAccountng&Valuation 1/10     55
    ##  7     1 ACCT 270 FoundationsAccountng&Valuation 1/11     70
    ##  8     1 ACCT 270 FoundationsAccountng&Valuation 1/12     95
    ##  9     1 ACCT 270 FoundationsAccountng&Valuation 1/13    100
    ## 10     1 ACCT 270 FoundationsAccountng&Valuation 1/14    103
    ## # ... with 66,490 more rows
…
### `subjects.csv`

The last table we have is fairly straightforward: it simply includes a
list of the department codes, and the full names of those departments:

``` r
subjects
```

    ## # A tibble: 250 x 2
    ##    subject name                          
    ##    <chr>   <chr>                         
    ##  1 ACCT    Accounting                    
    ##  2 ADSC    Administrative Sciences       
    ##  3 AFAM    African American Studies      
    ##  4 AFAS    African & African-Amer Studies
    ##  5 AFKN    Afrikaans                     
    ##  6 AFST    African Studies               
    ##  7 AKKD    Akkadian                      
    ##  8 AMST    American Studies              
    ##  9 AMTH    Applied Mathematics           
    ## 10 ANES    Anesthesiology                
    ## # ... with 240 more rows
…
    df
}
```

You can call these functions on the `number` column like so:

``` r
courses <- courses %>% 
  separate_code() %>%
  separate_designator()

courses
```

    ## # A tibble: 3,325 x 6
    ##       id code     subject number name                           designator
    ##    <dbl> <chr>    <chr>    <dbl> <chr>                          <chr>     
    ##  1     1 ACCT 270 ACCT       270 FoundationsAccountng&Valuation <NA>      
    ##  2     2 AFAM 146 AFAM       146 Urban and Education Inequality <NA>      
    ##  3     2 ECON 171 ECON       171 Urban and Education Inequality <NA>      
    ##  4     2 EDST 271 EDST       271 Urban and Education Inequality <NA>      
    ##  5     3 AFAM 162 AFAM       162 AfricanAmerHist:Emanciptn-Pres <NA>      
    ##  6     3 AMST 162 AMST       162 AfricanAmerHist:Emanciptn-Pres <NA>      
    ##  7     3 HIST 187 HIST       187 AfricanAmerHist:Emanciptn-Pres <NA>      
    ##  8     4 AFAM 164 AFAM       164 "Politics of \"The Wire\""     <NA>      
    ##  9     4 PLSC 263 PLSC       263 "Politics of \"The Wire\""     <NA>      
    ## 10     4 URBN 304 URBN       304 "Politics of \"The Wire\""     <NA>      
    ## # ... with 3,315 more rows

Notice that now, the `number` column is a numeric variable, which it
makes it easy to filter courses by course code. For example, we can
filter for labs by looking for “L” in the designator column:

``` r
courses %>%
  filter(designator == "L")
```

    ## # A tibble: 38 x 6
    ##       id code      subject number name                           designator
    ##    <dbl> <chr>     <chr>    <dbl> <chr>                          <chr>     
    ##  1   361 BENG 356L BENG       356 Biomedical Engineering Lab     L         
    ##  2   442 CENG 412L CENG       412 ChemicalEngineering Lab&Design L         
    ##  3   457 CHEM 134L CHEM       134 General Chemistry Laboratory I L         
    ##  4   458 CHEM 136L CHEM       136 GeneralChemistry Laboratory II L         
    ##  5   465 CHEM 222L CHEM       222 Lab for Organic Chemistry I    L         
    ##  6   466 CHEM 223L CHEM       223 Lab for Organic Chemistry II   L         
    ##  7   467 CHEM 251L CHEM       251 Inorganic Chemistry Laboratory L         
    ##  8   469 CHEM 330L CHEM       330 Lab for Physical Chemistry I   L         
    ##  9   470 CHEM 331L CHEM       331 Lab for Physical Chemistry II  L         
    ## 10   472 CHEM 349L CHEM       349 Materials Chemistry Laboratory L         
    ## # ... with 28 more rows

Freshman seminars are numbered 099 and below, so you can filter for
freshman seminars using:

``` r
courses %>%
  filter(number < 100)
```

    ## # A tibble: 55 x 6
    ##       id code     subject number name                           designator
    ##    <dbl> <chr>    <chr>    <dbl> <chr>                          <chr>     
    ##  1    45 AFST 001 AFST         1 Egypt and Northeast Africa     <NA>      
    ##  2    45 ARCG 001 ARCG         1 Egypt and Northeast Africa     <NA>      
    ##  3    45 NELC 001 NELC         1 Egypt and Northeast Africa     <NA>      
    ##  4    46 AFST 028 AFST        28 African Lit in the World       <NA>      
    ##  5    46 ENGL 028 ENGL        28 African Lit in the World       <NA>      
    ##  6    46 LITR 025 LITR        25 African Lit in the World       <NA>      
    ##  7    69 AMST 012 AMST        12 Politcs&Society inUS afterWWII <NA>      
    ##  8    69 HIST 012 HIST        12 Politcs&Society inUS afterWWII <NA>      
    ##  9    70 AMST 028 AMST        28 Book Collecting in America     <NA>      
    ## 10    70 HIST 019 HIST        19 Book Collecting in America     <NA>      
    ## # ... with 45 more rows
…
<!-- end list -->

``` r
courses %>%
  left_join(demand) %>%
  mutate(date = as.Date(date, format = "%m/%d")) %>%
  arrange(code, date) %>%
  group_by(code) %>%
  summarize(enrollment = last(count),
            peak_demand = max(count),
            peak_demand_day = date[which.max(count)])
```

    ## # A tibble: 3,250 x 4
    ##    code     enrollment peak_demand peak_demand_day
    ##    <chr>         <dbl>       <dbl> <date>         
    ##  1 ACCT 270         90         103 2020-01-14     
    ##  2 AFAM 146         66         188 2020-01-13     
    ##  3 AFAM 162         49          84 2020-01-13     
    ##  4 AFAM 164        118         185 2020-01-13     
    ##  5 AFAM 172        103         144 2020-01-14     
    ##  6 AFAM 182          0           1 2020-01-05     
    ##  7 AFAM 184          4          15 2020-01-14     
    ##  8 AFAM 186         43          65 2020-01-16     
    ##  9 AFAM 198         49          74 2020-01-15     
    ## 10 AFAM 206         18          77 2020-01-12     
    ## # ... with 3,240 more rows
…
(Modify the last chunk of `coursetable` code depending on how you choose
to process it.)

The reasoning is because that all of the `unite_code()` and
`separate_designator()` calls make the column format consistent across
both the Course Demand Statistics and CourseTable data: each row of
courses has one column for subject, number, and designator. This means
you can more easily merge together the `courses` table and the
`coursetable` table by using a `left_join()` call:

``` r
left_join(demand, coursetable)
```

    ## # A tibble: 74,140 x 13
    ##       id date       count code  subject number designator name  section times
    ##    <dbl> <date>     <dbl> <chr> <chr>    <dbl> <chr>      <chr>   <dbl> <chr>
    ##  1     1 2020-01-05    22 ACCT~ ACCT       270 <NA>       Foun~       1 MW 8~
    ##  2     1 2020-01-06    22 ACCT~ ACCT       270 <NA>       Foun~       1 MW 8~
    ##  3     1 2020-01-07    24 ACCT~ ACCT       270 <NA>       Foun~       1 MW 8~
    ##  4     1 2020-01-08    42 ACCT~ ACCT       270 <NA>       Foun~       1 MW 8~
    ##  5     1 2020-01-09    45 ACCT~ ACCT       270 <NA>       Foun~       1 MW 8~
    ##  6     1 2020-01-10    55 ACCT~ ACCT       270 <NA>       Foun~       1 MW 8~
    ##  7     1 2020-01-11    70 ACCT~ ACCT       270 <NA>       Foun~       1 MW 8~
    ##  8     1 2020-01-12    95 ACCT~ ACCT       270 <NA>       Foun~       1 MW 8~
    ##  9     1 2020-01-13   100 ACCT~ ACCT       270 <NA>       Foun~       1 MW 8~
    ## 10     1 2020-01-14   103 ACCT~ ACCT       270 <NA>       Foun~       1 MW 8~
    ## # ... with 74,130 more rows, and 3 more variables: locations <chr>,
    ## #   rating <dbl>, workload <dbl>
…
